{
  "cover": "https://i.ibb.co/tJJSc9t/001.jpg",
  "title": "Secret Class - Chapter 001 [UNCENSORED]",
  "images": [
    "https://i.ibb.co/1Rvj98x/1.jpg",
    "https://i.ibb.co/zVnjF4H/2.jpg",
    "https://i.ibb.co/7ztGHhh/3.jpg",
    "https://i.ibb.co/qMxHGpk/4.jpg",
    "https://i.ibb.co/ZSjVtGp/5.jpg",
    "https://i.ibb.co/BgyDTDt/6.jpg",
    "https://i.ibb.co/KNjmTC7/7.jpg"
  ]
}