{
  "cover": "https://i.ibb.co/tJJSc9t/001.jpg",
  "title": "Secret Class - Chapter 007 [UNCENSORED]",
  "images": [
    "https://i.ibb.co/ZNJ13Jy/001.jpg",
    "https://i.ibb.co/m5cS7wH/002.jpg",
    "https://i.ibb.co/Z2XtwS8/003.jpg",
    "https://i.ibb.co/c36m0bY/004.jpg",
    "https://i.ibb.co/LQYk6jj/005.jpg",
    "https://i.ibb.co/P4Qr42q/006.jpg",
    "https://i.ibb.co/p10pBgZ/007.jpg",
    "https://i.ibb.co/HHdqmrF/008.jpg",
    "https://i.ibb.co/7Gbjpt1/009.jpg",
    "https://i.ibb.co/W2xg8VW/010.jpg",
    "https://i.ibb.co/nQc2Qt9/011.jpg",
    "https://i.ibb.co/1ryGZzT/012.jpg",
    "https://i.ibb.co/q9DM0Lj/013.jpg",
    "https://i.ibb.co/rm8RZF8/014.jpg",
    "https://i.ibb.co/4KNRjhj/015.jpg",
    "https://i.ibb.co/3RSB0Cy/016.jpg",
    "https://i.ibb.co/TvFDnFR/017.jpg",
    "https://i.ibb.co/GFkNwjb/018.jpg",
    "https://i.ibb.co/k0DMqf4/019.jpg",
    "https://i.ibb.co/tJmXSB5/020.jpg",
    "https://i.ibb.co/tskBs5J/021.jpg",
    "https://i.ibb.co/DMDTDsJ/022.jpg",
    "https://i.ibb.co/MSg1JV6/023.jpg",
    "https://i.ibb.co/DYWttmr/024.jpg",
    "https://i.ibb.co/L50Ptxy/025.jpg",
    "https://i.ibb.co/Hq2TJr3/026.jpg",
    "https://i.ibb.co/QkvYkTt/027.jpg",
    "https://i.ibb.co/wr7Lh9r/028.jpg",
    "https://i.ibb.co/P1txbyW/029.jpg",
    "https://i.ibb.co/nQ3VYtF/030.jpg",
    "https://i.ibb.co/qYdHMxQ/031.jpg",
    "https://i.ibb.co/VSMSk35/032.jpg",
    "https://i.ibb.co/jJwfKGP/033.jpg",
    "https://i.ibb.co/RQVgBkR/034.jpg",
    "https://i.ibb.co/31xY0Z1/035.jpg",
    "https://i.ibb.co/VWw5jxq/036.jpg",
    "https://i.ibb.co/G2DyZjS/037.jpg",
    "https://i.ibb.co/89HgNFm/038.jpg",
    "https://i.ibb.co/r7QYt7g/039.jpg",
    "https://i.ibb.co/0FjVbhp/040.jpg",
    "https://i.ibb.co/Mc4N3ng/041.jpg",
    "https://i.ibb.co/h9W7W3c/042.jpg",
    "https://i.ibb.co/wBx2WZG/043.jpg",
    "https://i.ibb.co/x575QHS/044.jpg",
    "https://i.ibb.co/PZb9TTD/045.jpg",
    "https://i.ibb.co/KG5xvLS/999.jpg"
  ]
}