{
  "cover": "https://i.ibb.co/tJJSc9t/001.jpg",
  "title": "Secret Class - Chapter 013 [UNCENSORED]",
  "images": [
    "https://i.ibb.co/N7b2DMK/001.jpg",
    "https://i.ibb.co/gvD8HNN/002-copy.jpg",
    "https://i.ibb.co/jMDw2wr/003-copy.jpg",
    "https://i.ibb.co/C7NSsf5/004-copy.jpg",
    "https://i.ibb.co/7zQB6zp/005-copy.jpg",
    "https://i.ibb.co/CB1dt14/006-copy.jpg",
    "https://i.ibb.co/P6MzPVg/007-copy.jpg",
    "https://i.ibb.co/8P4G2SK/008-copy.jpg",
    "https://i.ibb.co/17t6wKx/009-copy.jpg",
    "https://i.ibb.co/MZSQ9yk/010-copy.jpg",
    "https://i.ibb.co/FKb96xQ/011-copy.jpg",
    "https://i.ibb.co/0F0qfr9/012-copy.jpg",
    "https://i.ibb.co/HC14165/013-copy.jpg",
    "https://i.ibb.co/d4Bmdzv/014-copy.jpg",
    "https://i.ibb.co/x26Yt0V/015-copy.jpg",
    "https://i.ibb.co/F0kjCzc/016-copy.jpg",
    "https://i.ibb.co/yS1t11L/017-copy.jpg",
    "https://i.ibb.co/KbDCTTS/018-copy.jpg",
    "https://i.ibb.co/RCwVK8q/019-copy.jpg",
    "https://i.ibb.co/kQ1wtxp/020-copy.jpg",
    "https://i.ibb.co/yQtcfs3/021-copy.jpg",
    "https://i.ibb.co/rbFgRbx/022-copy.jpg",
    "https://i.ibb.co/mvwcLdQ/023-copy.jpg",
    "https://i.ibb.co/YL4bSfz/024-copy.jpg",
    "https://i.ibb.co/0c7Cf4H/025-copy.jpg",
    "https://i.ibb.co/jbXJQCr/026-copy.jpg",
    "https://i.ibb.co/WDRqD1x/027-copy.jpg",
    "https://i.ibb.co/n84zjBz/028-copy.jpg",
    "https://i.ibb.co/6YfBG6K/029-copy.jpg",
    "https://i.ibb.co/tDs0B8j/030-copy.jpg",
    "https://i.ibb.co/XbxN5ZK/031-copy.jpg",
    "https://i.ibb.co/gVjxgK5/032-copy.jpg",
    "https://i.ibb.co/sRL76nt/033-copy.jpg",
    "https://i.ibb.co/b5Gsm96/034-copy.jpg",
    "https://i.ibb.co/31H4pPP/035-copy.jpg",
    "https://i.ibb.co/QpMnJQz/036-copy.jpg",
    "https://i.ibb.co/JnW9ZQm/037-copy.jpg",
    "https://i.ibb.co/YNLryfL/038-copy.jpg",
    "https://i.ibb.co/Hggp5wS/039-copy.jpg",
    "https://i.ibb.co/KG5xvLS/999.jpg"
  ]
}