{
  "cover": "https://i.ibb.co/tJJSc9t/001.jpg",
  "title": "Secret Class - Chapter 008 [UNCENSORED]",
  "images": [
    "https://i.ibb.co/x7LrzB9/001.jpg",
    "https://i.ibb.co/BBK5MSW/002.jpg",
    "https://i.ibb.co/S0j5GS3/003.jpg",
    "https://i.ibb.co/Hh93nZ7/004.jpg",
    "https://i.ibb.co/jZs9Vb3/005.jpg",
    "https://i.ibb.co/61Sz2c2/006.jpg",
    "https://i.ibb.co/r0XTTf2/007.jpg",
    "https://i.ibb.co/qnKjGJT/008.jpg",
    "https://i.ibb.co/Jvc4Fyf/009.jpg",
    "https://i.ibb.co/74MHPFQ/010.jpg",
    "https://i.ibb.co/bv5n3BY/011.jpg",
    "https://i.ibb.co/3R3GmG1/012.jpg",
    "https://i.ibb.co/rdqHLN7/013.jpg",
    "https://i.ibb.co/zZ1tCJ1/014.jpg",
    "https://i.ibb.co/DpXhgd8/015.jpg",
    "https://i.ibb.co/dbSXmJF/016.jpg",
    "https://i.ibb.co/2dmDqB0/017.jpg",
    "https://i.ibb.co/tKgMTyY/018.jpg",
    "https://i.ibb.co/7KbFNwV/019.jpg",
    "https://i.ibb.co/qCR1trp/020.jpg",
    "https://i.ibb.co/FsHXLbr/021.jpg",
    "https://i.ibb.co/XxKNH71/022.jpg",
    "https://i.ibb.co/17LNbG1/023.jpg",
    "https://i.ibb.co/X7QtcKC/024.jpg",
    "https://i.ibb.co/fqtmgvL/025.jpg",
    "https://i.ibb.co/pwW9knZ/026.jpg",
    "https://i.ibb.co/W2rWFLr/027.jpg",
    "https://i.ibb.co/B6rgzyh/028.jpg",
    "https://i.ibb.co/b1XgvTg/029.jpg",
    "https://i.ibb.co/M7CZQQp/030.jpg",
    "https://i.ibb.co/ngT1fq4/031.jpg",
    "https://i.ibb.co/JqR579L/032.jpg",
    "https://i.ibb.co/Bf92vGs/033.jpg",
    "https://i.ibb.co/3z1Jk1j/034.jpg",
    "https://i.ibb.co/P1sWbJ1/035.jpg",
    "https://i.ibb.co/BVgxbBn/036.jpg",
    "https://i.ibb.co/nr3pmB5/037.jpg",
    "https://i.ibb.co/hgXY1Hm/038.jpg",
    "https://i.ibb.co/D1ZVrxb/039.jpg",
    "https://i.ibb.co/FJ7fQFs/040.jpg",
    "https://i.ibb.co/vXWWPcW/041.jpg",
    "https://i.ibb.co/KG5xvLS/999.jpg"
  ]
}