{
  "cover": "https://i.ibb.co/nc0DZS2/001.jpg",
  "title": "Fitness - Chapter 001[UNCENSORED]",
  "images": [
    "https://i.ibb.co/khqhk2B/1.jpg",
    "https://i.ibb.co/bJG8rmC/2.jpg",
    "https://i.ibb.co/fpcbkWF/3.jpg",
    "https://i.ibb.co/ncfDSxK/4.jpg"
  ]
}