{
  "cover": "https://i.ibb.co/nc0DZS2/001.jpg",
  "title": "Fitness - Chapter 008 [UNCENSORED]",
  "images": [
    "https://i.ibb.co/cXBBLKY/001.jpg",
    "https://i.ibb.co/KzQBNQ9/002.jpg",
    "https://i.ibb.co/znjKMCQ/003.jpg",
    "https://i.ibb.co/Yjz3jzq/004.jpg",
    "https://i.ibb.co/59nk7ZP/005.jpg",
    "https://i.ibb.co/DkCt8YW/006.jpg",
    "https://i.ibb.co/MpRjPNt/007.jpg",
    "https://i.ibb.co/18WZjsD/008.jpg",
    "https://i.ibb.co/TLWtmj9/009.jpg",
    "https://i.ibb.co/hV4vFpn/010.jpg",
    "https://i.ibb.co/8Bqxs4t/011.jpg",
    "https://i.ibb.co/k5fB2Dc/012.jpg",
    "https://i.ibb.co/g6jf5CC/013.jpg",
    "https://i.ibb.co/LhBF313/014.jpg",
    "https://i.ibb.co/h1wCS1N/015.jpg",
    "https://i.ibb.co/K0J2C2r/016.jpg",
    "https://i.ibb.co/YtgxGrH/017.jpg",
    "https://i.ibb.co/JjRzqrs/018.jpg",
    "https://i.ibb.co/R4m4hcp/019.jpg",
    "https://i.ibb.co/TWn2HDC/020.jpg",
    "https://i.ibb.co/ZGLm2r7/021.jpg",
    "https://i.ibb.co/19q2ZvW/022.jpg",
    "https://i.ibb.co/J52nSyN/023.jpg",
    "https://i.ibb.co/gd6KtTD/024.jpg",
    "https://i.ibb.co/qxpLLXW/025.jpg",
    "https://i.ibb.co/NSYWkvG/026.jpg",
    "https://i.ibb.co/zFVwRmK/027.jpg",
    "https://i.ibb.co/Wx1MQV7/028.jpg",
    "https://i.ibb.co/kGdYmHH/029.jpg",
    "https://i.ibb.co/6Fm3JxJ/030.jpg",
    "https://i.ibb.co/KDzKYmm/031.jpg",
    "https://i.ibb.co/Gc2Fdr4/032.jpg",
    "https://i.ibb.co/QpnC9sC/033.jpg",
    "https://i.ibb.co/sPqgZmM/034.jpg",
    "https://i.ibb.co/TrfpYSV/035.jpg",
    "https://i.ibb.co/CPTprRW/036.jpg",
    "https://i.ibb.co/rb6Zz45/037.jpg",
    "https://i.ibb.co/p1LJ0dL/038.jpg"
  ]
}