{
  "cover": "https://i.ibb.co/B3SfGsN/001.jpg",
  "title": "Boarding Diary - Chapter 002A [UNCENSORED]",
  "images": [
    "https://i.ibb.co/m5HLpTw/1.jpg",
    "https://i.ibb.co/mBnCsr9/2.jpg",
    "https://i.ibb.co/CJ7fF8d/3.jpg",
    "https://i.ibb.co/6ZMwFR1/4.jpg"
  ]
}